<svg width="18" height="18" viewBox="0 0 18 18" fill="currentColor" xmlns="http://www.w3.org/2000/svg">
  <path d="M9.95691 18C12.7329 18 15.2683 16.737 16.948 14.6675C17.1965 14.3613 16.9255 13.9141 16.5415 13.9872C12.175 14.8188 8.1651 11.4709 8.1651 7.06303C8.1651 4.52398 9.52431 2.18914 11.7334 0.931992C12.0739 0.738211 11.9883 0.221941 11.6013 0.150469C11.0589 0.0504468 10.5085 8.21369e-05 9.95691 0C4.98902 0 0.956909 4.02578 0.956909 9C0.956909 13.9679 4.98269 18 9.95691 18Z"/>
</svg>
